…
; Reporting relationships (value is an entity ID)
(set db (assert-fact db 100 'boss 101))
(set db (assert-fact db 102 'boss 100))
```

Each `assert-fact` returns a new table (the store is immutable). View the raw triples by evaluating `db`:

```lisp
db
```

```text
┌─────┬──────┬────────────────────────┐
│  e  │  a   │           v            │
│ i64 │ sym  │          i64           │
├─────┼──────┼────────────────────────┤
│ 100 │ name │ ...                    │
│ 100 │ dept │ ...                    │
│ 101 │ name │ ...                    │
│ 101 │ dept │ ...                    │
│ 102 │ name │ ...                    │
│ 102 │ dept │ ...                    │
│ 100 │ boss │ 101                    │
│ 102 │ boss │ 100                    │
├─────┴──────┴────────────────────────┤
│ 8 rows (8 shown) 3 columns (3 shown)│
└─────────────────────────────────────┘
```

**Note:** Symbol values (like `'Alice`, `'Engineering`) are stored as intern IDs in the `v` column. Integer values (like the `boss` entity references) appear directly. This is an implementation detail — the query engine handles the mapping transparently.

## 3. Querying Facts

Use `query` with `find`/`where` clauses to pattern-match over the triple store. Variables start with `?`. The `eav` predicate matches entity-attribute-value triples:

### Find all employees

```lisp
(query db (find ?e ?name) (where (eav ?e 'name ?name)))
```

```text
┌─────┬───────────────────────────────┐
│ ?e  │             ?name             │
│ i64 │              i64              │
├─────┼───────────────────────────────┤
│ 100 │ ...                           │
│ 101 │ ...                           │
│ 102 │ ...                           │
├─────┴───────────────────────────────┤
│ 3 rows (3 shown) 2 columns (2 shown)│
└─────────────────────────────────────┘
```
…
### Find employees in Engineering

Add a second pattern to filter by department. Constants (like `'Engineering`) constrain the match:

```lisp
(query db
  (find ?e ?name)
  (where
    (eav ?e 'dept 'Engineering)
    (eav ?e 'name ?name)))
```

```text
┌─────┬───────────────────────────────┐
│ ?e  │             ?name             │
│ i64 │              i64              │
├─────┼───────────────────────────────┤
│ 100 │ ...                           │
│ 102 │ ...                           │
├─────┴───────────────────────────────┤
│ 2 rows (2 shown) 2 columns (2 shown)│
└─────────────────────────────────────┘
```

Only Alice (100) and Carol (102) are returned — Bob is in Sales.

### Find who reports to whom

Query the `boss` attribute to find reporting relationships. Since `boss` stores integer entity IDs, the values are directly readable:

```lisp
(query db
  (find ?e ?boss)
  (where (eav ?e 'boss ?boss)))
```

```text
┌─────┬───────────────────────────────┐
│ ?e  │             ?boss             │
│ i64 │              i64              │
├─────┼───────────────────────────────┤
│ 100 │ 101                           │
│ 102 │ 100                           │
├─────┴───────────────────────────────┤
│ 2 rows (2 shown) 2 columns (2 shown)│
└─────────────────────────────────────┘
```
…
This says: `?mgr` manages `?sub` if `?sub` has a `boss` attribute pointing to `?mgr`. Query it like any other predicate:

```lisp
(query db
  (find ?mgr ?sub)
  (where (manages ?mgr ?sub)))
```

```text
┌──────┬──────────────────────────────┐
│ ?mgr │             ?sub             │
│ i64  │             i64              │
├──────┼──────────────────────────────┤
│ 100  │ 102                          │
│ 101  │ 100                          │
├──────┴──────────────────────────────┤
│ 2 rows (2 shown) 2 columns (2 shown)│
└─────────────────────────────────────┘
```
…
Now find everyone who reports to Bob (101), directly or indirectly:

```lisp
(query db
  (find ?sub)
  (where (chain 101 ?sub)))
```

```text
┌─────────────────────────────────────┐
│                ?sub                 │
│                 i64                 │
├─────────────────────────────────────┤
│ 100                                 │
│ 102                                 │
├─────────────────────────────────────┤
│ 2 rows (2 shown) 1 columns (1 shown)│
└─────────────────────────────────────┘
```
…
## 6. Negation

Use `not` to exclude matching patterns. Find all employees who are NOT in Sales:

```lisp
(query db
  (find ?e ?name)
  (where
    (eav ?e 'name ?name)
    (not (eav ?e 'dept 'Sales))))
```

```text
┌─────┬───────────────────────────────┐
│ ?e  │             ?name             │
│ i64 │              i64              │
├─────┼───────────────────────────────┤
│ 100 │ ...                           │
│ 102 │ ...                           │
├─────┴───────────────────────────────┤
│ 2 rows (2 shown) 2 columns (2 shown)│
└─────────────────────────────────────┘
```
…
```text
{name:... dept:...}
```

Symbol values appear as intern IDs in the dict. Integer values (like the `boss` reference) appear directly.

You can also use `scan-eav` for attribute-level lookups. Given an attribute, it returns an `[e v]` table:

```lisp
(scan-eav db 'name)
```

```text
┌─────┬───────────────────────────────┐
│  e  │               v               │
│ i64 │              i64              │
├─────┼───────────────────────────────┤
│ 100 │ ...                           │
│ 101 │ ...                           │
│ 102 │ ...                           │
├─────┴───────────────────────────────┤
│ 3 rows (3 shown) 2 columns (2 shown)│
└─────────────────────────────────────┘
```
…
(rule (chain ?top ?sub)
  (eav ?sub 'boss ?mid)
  (chain ?top ?mid))
```

Query everyone who reports to the CEO (100):

```lisp
(query db
  (find ?sub)
  (where (chain 100 ?sub)))
```

```text
┌─────────────────────────────────────┐
│                ?sub                 │
│                 i64                 │
├─────────────────────────────────────┤
│ 101                                 │
│ 102                                 │
│ 103                                 │
│ 104                                 │
│ 105                                 │
├─────────────────────────────────────┤
│ 5 rows (5 shown) 1 columns (1 shown)│
└─────────────────────────────────────┘
```
…
Define a rule for department heads (employees with title VP):

```lisp
(rule (dept_head ?e ?d)
  (eav ?e 'dept ?d)
  (eav ?e 'title 'VP))

(query db
  (find ?e ?d)
  (where (dept_head ?e ?d)))
```

```text
┌─────┬───────────────────────────────┐
│ ?e  │              ?d               │
│ i64 │              i64              │
├─────┼───────────────────────────────┤
│ 101 │ ...                           │
│ 104 │ ...                           │
├─────┴───────────────────────────────┤
│ 2 rows (2 shown) 2 columns (2 shown)│
└─────────────────────────────────────┘
```
…
