…
Assuming `trades.csv` contains:

```text
Symbol,Price,Qty
AAPL,150.5,100
GOOG,280.0,200
MSFT,420.0,50
AAPL,155.0,300
GOOG,275.5,150
```

Output:

```text
┌────────┬───────┬────────────────────┐
│ Symbol │ Price │        Qty         │
│  sym   │  f64  │        i64         │
├────────┼───────┼────────────────────┤
│ AAPL   │ 150.5 │ 100                │
│ GOOG   │ 280.0 │ 200                │
│ MSFT   │ 420.0 │ 50                 │
│ AAPL   │ 155.0 │ 300                │
│ GOOG   │ 275.5 │ 150                │
├────────┴───────┴────────────────────┤
│ 5 rows (5 shown) 3 columns (3 shown)│
└─────────────────────────────────────┘
```
…
```text
TABLE
```

`show` limits the display to the first *n* rows — useful for large datasets:

```lisp
(show trades 3)
```

```text
┌────────┬───────┬────────────────────┐
│ Symbol │ Price │        Qty         │
│  sym   │  f64  │        i64         │
├────────┼───────┼────────────────────┤
│ AAPL   │ 150.5 │ 100                │
│ GOOG   │ 280.0 │ 200                │
│ MSFT   │ 420.0 │ 50                 │
│ AAPL   │ 155.0 │ 300                │
│ GOOG   │ 275.5 │ 150                │
├────────┴───────┴────────────────────┤
│ 5 rows (5 shown) 3 columns (3 shown)│
└─────────────────────────────────────┘
```

## 3. Filtering Rows

Use `select` with a `where:` clause to filter rows. Find all trades where the price exceeds 200:

```lisp
(select {from:trades where: (> Price 200.0)})
```

```text
┌────────┬───────┬────────────────────┐
│ Symbol │ Price │        Qty         │
│  sym   │  f64  │        i64         │
├────────┼───────┼────────────────────┤
│ GOOG   │ 280.0 │ 200                │
│ MSFT   │ 420.0 │ 50                 │
│ GOOG   │ 275.5 │ 150                │
├────────┴───────┴────────────────────┤
│ 3 rows (3 shown) 3 columns (3 shown)│
└─────────────────────────────────────┘
```

## 4. Grouping and Aggregation

Group by a column and compute aggregates with `by:`:

```lisp
(select {from:trades by: Symbol
         total_qty: (sum Qty)
         avg_price: (avg Price)})
```

```text
┌────────┬───────────┬────────────────┐
│ Symbol │ total_qty │   avg_price    │
│  sym   │    i64    │      f64       │
├────────┼───────────┼────────────────┤
│ AAPL   │ 400       │ 152.75         │
│ GOOG   │ 350       │ 277.75         │
│ MSFT   │ 50        │ 420.0          │
├────────┴───────────┴────────────────┤
│ 3 rows (3 shown) 3 columns (3 shown)│
└─────────────────────────────────────┘
```
…
```text
197
```

The entire table is encoded in 197 bytes. Deserialize with `de`:

```lisp
(set restored (de bytes))
restored
```

```text
┌────────┬───────┬────────────────────┐
│ Symbol │ Price │        Qty         │
│  sym   │  f64  │        i64         │
├────────┼───────┼────────────────────┤
│ AAPL   │ 150.5 │ 100                │
│ GOOG   │ 280.0 │ 200                │
│ MSFT   │ 420.0 │ 50                 │
│ AAPL   │ 155.0 │ 300                │
│ GOOG   │ 275.5 │ 150                │
├────────┴───────┴────────────────────┤
│ 5 rows (5 shown) 3 columns (3 shown)│
└─────────────────────────────────────┘
```

The deserialized table is identical to the original — all types, column names, and values are preserved.

## 6. Splayed Tables

Splayed tables store each column as a separate file on disk. This is Rayforce's native columnar format — faster than CSV and preserving exact types. Use `.db.splayed.set` to save and `.db.splayed.get` to load:

```lisp
(.db.splayed.set "/tmp/rayforce-test/trades_db" trades)
```

```text
┌────────┬───────┬────────────────────┐
│ Symbol │ Price │        Qty         │
│  sym   │  f64  │        i64         │
├────────┼───────┼────────────────────┤
│ AAPL   │ 150.5 │ 100                │
│ GOOG   │ 280.0 │ 200                │
│ MSFT   │ 420.0 │ 50                 │
│ AAPL   │ 155.0 │ 300                │
│ GOOG   │ 275.5 │ 150                │
├────────┴───────┴────────────────────┤
│ 5 rows (5 shown) 3 columns (3 shown)│
└─────────────────────────────────────┘
```
…
```text
/tmp/rayforce-test/trades_db/
  Symbol    Price    Qty    sym    sym.lk
```

Load it back in a new session (or the same one) with `.db.splayed.get`:

```lisp
(set loaded (.db.splayed.get "/tmp/rayforce-test/trades_db"))
loaded
```

```text
┌────────┬───────┬────────────────────┐
│ Symbol │ Price │        Qty         │
│  sym   │  f64  │        i64         │
├────────┼───────┼────────────────────┤
│ AAPL   │ 150.5 │ 100                │
│ GOOG   │ 280.0 │ 200                │
│ MSFT   │ 420.0 │ 50                 │
│ AAPL   │ 155.0 │ 300                │
│ GOOG   │ 275.5 │ 150                │
├────────┴───────┴────────────────────┤
│ 5 rows (5 shown) 3 columns (3 shown)│
└─────────────────────────────────────┘
```
…
```text
0
```

Verify by reading it back:

```lisp
(.csv.read "/tmp/rayforce-test/big_trades.csv")
```

```text
┌────────┬───────┬────────────────────┐
│ Symbol │ Price │        Qty         │
│  sym   │  f64  │        i64         │
├────────┼───────┼────────────────────┤
│ GOOG   │ 280.0 │ 200                │
│ MSFT   │ 420.0 │ 50                 │
│ GOOG   │ 275.5 │ 150                │
├────────┴───────┴────────────────────┤
│ 3 rows (3 shown) 3 columns (3 shown)│
└─────────────────────────────────────┘
```
…
; 6. Deserialize and verify
(set restored (de bytes))
(count restored)

; 7. Save as splayed table for fast reload
(.db.splayed.set "/tmp/rayforce-test/big_db" big)

; 8. Load splayed table back
(.db.splayed.get "/tmp/rayforce-test/big_db")
```

```text
┌────────┬───────┬────────────────────┐
│ Symbol │ Price │        Qty         │
│  sym   │  f64  │        i64         │
├────────┼───────┼────────────────────┤
│ GOOG   │ 280.0 │ 200                │
│ MSFT   │ 420.0 │ 50                 │
│ GOOG   │ 275.5 │ 150                │
├────────┴───────┴────────────────────┤
│ 3 rows (3 shown) 3 columns (3 shown)│
└─────────────────────────────────────┘
```
…
