Datalog: Rules & Queries — Rayforce Documentation
…
      Scanning by attribute

      Use (scan-eav db attribute) to query all entities with a given attribute, or (scan-eav db entity attribute) to get a specific value:

;; All salaries: returns a table of [entity, value]
(show (scan-eav db 'salary))

;; Specific entity's salary: returns the scalar value
(println (scan-eav db 3 'salary))  ;; => 90000

      Verified output (from scan-eav db 'salary):

All salaries:
┌─────┬───────────────────────────────┐
│  e  │               v               │
│ i64 │              i64              │
├─────┼───────────────────────────────┤
│ 1   │ 80000                         │
│ 2   │ 60000                         │
│ 3   │ 90000                         │
├─────┴───────────────────────────────┤
│ 3 rows (3 shown) 2 columns (2 shown)│
└─────────────────────────────────────┘
…
;; Define "employee" as entities with both name and dept
(rule (employee ?e ?n ?d)
  (?e :name ?n)
  (?e :dept ?d))

;; Query using the rule
(show (query db (find ?n ?d) (where (employee ?e ?n ?d))))

      This rule says: "an employee is any entity ?e that has both a :name attribute (bound to ?n) and a :dept attribute (bound to ?d)." The shared variable ?e across the two clauses produces a join on entity ID.

      Verified output:

Employees (via rule):
┌─────┬───────────────────────────────┐
│ ?n  │              ?d               │
│ i64 │              i64              │
├─────┼───────────────────────────────┤
│ 158 │ 161                           │
│ 159 │ 162                           │
├─────┴───────────────────────────────┤
│ 2 rows (2 shown) 2 columns (2 shown)│
└─────────────────────────────────────┘
…
      Queries retrieve data from the datoms database using pattern matching. The syntax is:

(query db (find ?vars...) (where clauses...))

      The find clause specifies which variables to return. The where clause contains triple patterns and rule invocations that constrain the results.

      Simple pattern query

;; Find all entities and their names
(show (query db (find ?e ?n) (where (?e :name ?n))))

      Verified output:

┌─────┬───────────────────────────────┐
│ ?e  │              ?n               │
│ i64 │              i64              │
├─────┼───────────────────────────────┤
│ 1   │ 158                           │
│ 2   │ 159                           │
│ 3   │ 160                           │
├─────┴───────────────────────────────┤
│ 3 rows (3 shown) 2 columns (2 shown)│
└─────────────────────────────────────┘

      The ?n column contains symbol intern IDs. Use (sym-name id) to convert them to readable names (see sym-name below).

      Join query

      When multiple patterns share a variable, Rayforce compiles them into a join:

;; Find name + department (join on entity ?e)
(show (query db (find ?n ?d) (where (?e :name ?n) (?e :dept ?d))))

      Verified output:

┌─────┬───────────────────────────────┐
│ ?n  │              ?d               │
│ i64 │              i64              │
├─────┼───────────────────────────────┤
│ 158 │ 162                           │
│ 159 │ 163                           │
│ 160 │ 162                           │
├─────┴───────────────────────────────┤
│ 3 rows (3 shown) 2 columns (2 shown)│
└─────────────────────────────────────┘

      Constant value patterns

      Use a literal value instead of a variable to filter by a specific attribute value:

;; Only entities in the Engineering department
(show (query db (find ?e ?n) (where (?e :name ?n) (?e :dept 'Engineering))))

      Verified output (filters to entities 1 and 3):

┌─────┬───────────────────────────────┐
│ ?e  │              ?n               │
│ i64 │              i64              │
├─────┼───────────────────────────────┤
│ 1   │ 158                           │
│ 3   │ 160                           │
├─────┴───────────────────────────────┤
│ 2 rows (2 shown) 2 columns (2 shown)│
└─────────────────────────────────────┘

      Wildcard patterns

      Use _ to match any value without binding it to a variable:

;; All entities that have any dept attribute
(show (query db (find ?e) (where (?e :dept _))))

      Verified output:

┌─────────────────────────────────────┐
│                 ?e                  │
│                 i64                 │
├─────────────────────────────────────┤
│ 1                                   │
│ 2                                   │
│ 3                                   │
├─────────────────────────────────────┤
│ 3 rows (3 shown) 1 columns (1 shown)│
└─────────────────────────────────────┘
…
      Use (not (pattern)) in a where clause to exclude entities matching a pattern. Negation compiles to OP_ANTIJOIN — keeping rows from the positive clauses that have no match in the negated pattern.

;; Mark some employees as managers
(set db (assert-fact db 1 'manager 'true))
(set db (assert-fact db 3 'manager 'true))

;; Find employees who are NOT managers
(show (query db (find ?e ?n)
  (where (?e :name ?n)
         (not (?e :manager ?m)))))

      Verified output (only Bob, entity 2, is not a manager):

┌─────┬───────────────────────────────┐
│ ?e  │              ?n               │
│ i64 │              i64              │
├─────┼───────────────────────────────┤
│ 2   │ 159                           │
├─────┴───────────────────────────────┤
│ 1 rows (1 shown) 2 columns (2 shown)│
└─────────────────────────────────────┘
…
;; Base case: direct edge
(rule (reachable ?x ?y) (?x :edge ?y))

;; Recursive case: edge + reachability
(rule (reachable ?x ?z) (?x :edge ?y) (reachable ?y ?z))

;; Query: all reachable pairs
(show (query gdb (find ?x ?y) (where (reachable ?x ?y))))

      Verified output (6 reachable pairs from 3 edges: direct + transitive):

┌─────┬───────────────────────────────┐
│ ?x  │              ?y               │
│ i64 │              i64              │
├─────┼───────────────────────────────┤
│ 1   │ 2                             │
│ 1   │ 3                             │
│ 2   │ 3                             │
│ 2   │ 4                             │
│ 3   │ 4                             │
│ 1   │ 4                             │
├─────┴───────────────────────────────┤
│ 6 rows (6 shown) 2 columns (2 shown)│
└─────────────────────────────────────┘
…
;; Create a program and register base facts
(set prog (dl-program))
(set edges (table ['from 'to] (list [1 2 3] [2 3 4])))
(dl-add-edb prog 'edge edges 2)

;; Stratify and evaluate
(dl-stratify prog)
(dl-eval prog)

;; Query results
(show (dl-query prog 'edge))

      Verified output:

┌──────────┬──────────────────────────┐
│ edge__c0 │         edge__c1         │
│   i64    │           i64            │
├──────────┼──────────────────────────┤
│ 1        │ 2                        │
│ 2        │ 3                        │
│ 3        │ 4                        │
├──────────┴──────────────────────────┤
│ 3 rows (3 shown) 2 columns (2 shown)│
└─────────────────────────────────────┘

      retract-fact

      Use (retract-fact db entity attr value) to remove a triple from the datoms database:

;; Remove Bob's name fact
(set db (retract-fact db 2 'name 'Bob))

;; Verify: only Alice and Charlie remain
(show (query db (find ?e ?n) (where (?e :name ?n))))

      Verified output (2 rows after retraction):

┌─────┬───────────────────────────────┐
│ ?e  │              ?n               │
│ i64 │              i64              │
├─────┼───────────────────────────────┤
│ 1   │ 158                           │
│ 3   │ 164                           │
├─────┴───────────────────────────────┤
│ 2 rows (2 shown) 2 columns (2 shown)│
└─────────────────────────────────────┘
…
; -- 12. Scan-eav: low-level attribute lookup --
(println "--- All salaries (scan-eav) ---")
(show (scan-eav db 'salary))

(println "--- Entity 3 salary ---")
(println (scan-eav db 3 'salary))

      Output

      Running ./rayforce examples/rfl/datalog.rfl produces:

--- All names ---
┌─────┬───────────────────────────────┐
│ ?e  │              ?n               │
│ i64 │              i64              │
├─────┼───────────────────────────────┤
│ 1   │ 158                           │
│ 2   │ 162                           │
│ 3   │ 164                           │
├─────┴───────────────────────────────┤
│ 3 rows (3 shown) 2 columns (2 shown)│
└─────────────────────────────────────┘
--- Name + Department ---
┌─────┬───────────────────────────────┐
│ ?n  │              ?d               │
│ i64 │              i64              │
├─────┼───────────────────────────────┤
│ 158 │ 160                           │
│ 162 │ 163                           │
│ 164 │ 160                           │
├─────┴───────────────────────────────┤
│ 3 rows (3 shown) 2 columns (2 shown)│
└─────────────────────────────────────┘
--- Engineers only (constant pattern) ---
┌─────┬───────────────────────────────┐
│ ?e  │              ?n               │
│ i64 │              i64              │
├─────┼───────────────────────────────┤
│ 1   │ 158                           │
│ 3   │ 164                           │
├─────┴───────────────────────────────┤
│ 2 rows (2 shown) 2 columns (2 shown)│
└─────────────────────────────────────┘
--- Entities with any dept (wildcard _) ---
┌─────────────────────────────────────┐
│                 ?e                  │
│                 i64                 │
├─────────────────────────────────────┤
│ 1                                   │
│ 2                                   │
│ 3                                   │
├─────────────────────────────────────┤
│ 3 rows (3 shown) 1 columns (1 shown)│
└─────────────────────────────────────┘
--- Employees (via rule) ---
┌─────┬───────────────────────────────┐
│ ?n  │              ?d               │
│ i64 │              i64              │
├─────┼───────────────────────────────┤
│ 158 │ 160                           │
│ 162 │ 163                           │
│ 164 │ 160                           │
├─────┴───────────────────────────────┤
│ 3 rows (3 shown) 2 columns (2 shown)│
└─────────────────────────────────────┘
--- Non-managers (negation) ---
┌─────┬───────────────────────────────┐
│ ?e  │              ?n               │
│ i64 │              i64              │
├─────┼───────────────────────────────┤
│ 2   │ 162                           │
├─────┴───────────────────────────────┤
│ 1 rows (1 shown) 2 columns (2 shown)│
└─────────────────────────────────────┘
--- Reachable pairs (transitive closure) ---
┌─────┬───────────────────────────────┐
│ ?x  │              ?y               │
│ i64 │              i64              │
├─────┼───────────────────────────────┤
│ 1   │ 2                             │
│ 1   │ 3                             │
│ 2   │ 3                             │
│ 2   │ 4                             │
│ 3   │ 4                             │
│ 1   │ 4                             │
├─────┴───────────────────────────────┤
│ 6 rows (6 shown) 2 columns (2 shown)│
└─────────────────────────────────────┘
--- Pull entity 1 (all attributes) ---
['name 158 'dept 160 'salary 80000 'manager 172]
--- Pull entity 2 (name + salary only) ---
['name 162 'salary 60000]
--- sym-name: convert intern IDs ---
158
'Alice
--- Before retract ---
┌─────┬───────────────────────────────┐
│ ?e  │              ?n               │
│ i64 │              i64              │
├─────┼───────────────────────────────┤
│ 1   │ 158                           │
│ 2   │ 162                           │
│ 3   │ 164                           │
├─────┴───────────────────────────────┤
│ 3 rows (3 shown) 2 columns (2 shown)│
└─────────────────────────────────────┘
--- After retract (Bob removed) ---
┌─────┬───────────────────────────────┐
│ ?e  │              ?n               │
│ i64 │              i64              │
├─────┼───────────────────────────────┤
│ 1   │ 158                           │
│ 3   │ 164                           │
├─────┴───────────────────────────────┤
│ 2 rows (2 shown) 2 columns (2 shown)│
└─────────────────────────────────────┘
--- All salaries (scan-eav) ---
┌─────┬───────────────────────────────┐
│  e  │               v               │
│ i64 │              i64              │
├─────┼───────────────────────────────┤
│ 1   │ 80000                         │
│ 2   │ 60000                         │
│ 3   │ 90000                         │
├─────┴───────────────────────────────┤
│ 3 rows (3 shown) 2 columns (2 shown)│
└─────────────────────────────────────┘
…
