Analytics Cookbook — Rayforce Documentation
…
      Analytics Cookbook

      Practical recipes for common analytics tasks: time-series, top-N, running totals, pivots, ASOF joins, window joins, and CSV workflows.

      1. Time-Series Aggregation

      Problem: Given daily sales records, compute the total amount per day.

(set sales (table [Date Product Amount]
  (list
    (+ 2024.01.01 [0 0 1 1 2 2])
    [Widget Gadget Widget Gadget Widget Gadget]
    [100 200 150 300 120 180])))

┌────────────┬─────────┬──────────────┐
│    Date    │ Product │    Amount    │
│    date    │   sym   │     i64      │
├────────────┼─────────┼──────────────┤
│ 2024.01.01 │ Widget  │ 100          │
│ 2024.01.01 │ Gadget  │ 200          │
│ 2024.01.02 │ Widget  │ 150          │
│ 2024.01.02 │ Gadget  │ 300          │
│ 2024.01.03 │ Widget  │ 120          │
│ 2024.01.03 │ Gadget  │ 180          │
├────────────┴─────────┴──────────────┤
│ 6 rows (6 shown) 3 columns (3 shown)│
└─────────────────────────────────────┘

; Group by Date, sum Amount
(select {from:sales by: Date total: (sum Amount)})

┌────────────┬────────────────────────┐
│    Date    │         total          │
│    date    │          i64           │
├────────────┼────────────────────────┤
│ 2024.01.01 │ 300                    │
│ 2024.01.02 │ 450                    │
│ 2024.01.03 │ 300                    │
├────────────┴────────────────────────┤
│ 3 rows (3 shown) 2 columns (2 shown)│
└─────────────────────────────────────┘

      Date arithmetic uses the format YYYY.MM.DD. Adding an integer vector to a date produces a date vector offset by that many days.

      2. Top-N Queries

      Problem: Find the top 3 products by revenue.

(set products (table [Name Revenue]
  (list [Alpha Beta Gamma Delta Epsilon Zeta Eta]
        [500 1200 300 800 950 150 700])))

┌─────────┬───────────────────────────┐
│  Name   │          Revenue          │
│   sym   │            i64            │
├─────────┼───────────────────────────┤
│ Alpha   │ 500                       │
│ Beta    │ 1200                      │
│ Gamma   │ 300                       │
│ Delta   │ 800                       │
│ Epsilon │ 950                       │
│ Zeta    │ 150                       │
│ Eta     │ 700                       │
├─────────┴───────────────────────────┤
│ 7 rows (7 shown) 2 columns (2 shown)│
└─────────────────────────────────────┘

; Sort descending, then filter to keep top 3
(set sorted (xdesc products 'Revenue))
(select {from:sorted where: (> Revenue 700)})

┌─────────┬───────────────────────────┐
│  Name   │          Revenue          │
│   sym   │            i64            │
├─────────┼───────────────────────────┤
│ Beta    │ 1200                      │
│ Epsilon │ 950                       │
│ Delta   │ 800                       │
├─────────┴───────────────────────────┤
│ 3 rows (3 shown) 2 columns (2 shown)│
└─────────────────────────────────────┘
…
[1 2 6 24 120]

      The scan function takes a binary function and a vector, returning a vector of the same length where each element is the cumulative application of the function. The related fold function returns only the final accumulated value.

      4. Pivoting (Cross-Tabulation)

      Problem: Cross-tabulate sales by region and product.

(set data (table [Region Product Sales]
  (list [East East West West East West]
        [Widget Gadget Widget Gadget Widget Gadget]
        [100 200 150 300 120 180])))

┌────────┬─────────┬──────────────────┐
│ Region │ Product │      Sales       │
│  sym   │   sym   │       i64        │
├────────┼─────────┼──────────────────┤
│ East   │ Widget  │ 100              │
│ East   │ Gadget  │ 200              │
│ West   │ Widget  │ 150              │
│ West   │ Gadget  │ 300              │
│ East   │ Widget  │ 120              │
│ West   │ Gadget  │ 180              │
├────────┴─────────┴──────────────────┤
│ 6 rows (6 shown) 3 columns (3 shown)│
└─────────────────────────────────────┘

; Pivot: rows=Region, cols=Product, values=Sales, agg=sum
(pivot data 'Region 'Product 'Sales sum)

┌────────┬────────┬───────────────────┐
│ Region │ Widget │      Gadget       │
│  sym   │  i64   │        i64        │
├────────┼────────┼───────────────────┤
│ East   │ 220    │ 200               │
│ West   │ 150    │ 480               │
├────────┴────────┴───────────────────┤
│ 2 rows (2 shown) 3 columns (3 shown)│
└─────────────────────────────────────┘
…
(set trades (table [Sym Ts Price]
  (list [AAPL AAPL GOOG]
        [09:30:00 09:31:00 09:30:30]
        [150 151 280])))

(set quotes (table [Sym Ts Bid Ask]
  (list [AAPL AAPL AAPL GOOG GOOG GOOG]
        [09:29:50 09:30:10 09:31:05 09:30:00 09:30:20 09:31:00]
        [149 150 151 279 280 281]
        [151 152 153 281 282 283])))

; ASOF join: match on Sym, find latest Ts <= trade Ts
(asof-join [Sym Ts] trades quotes)

┌──────┬──────────────┬───────┬─────┬─────┐
│ Sym  │      Ts      │ Price │ Bid │ Ask │
│ sym  │     time     │  i64  │ i64 │ i64 │
├──────┼──────────────┼───────┼─────┼─────┤
│ AAPL │ 09:30:00.000 │ 150   │ 149 │ 151 │
│ AAPL │ 09:31:00.000 │ 151   │ 150 │ 152 │
│ GOOG │ 09:30:30.000 │ 280   │ 280 │ 282 │
├──────┴──────────────┴───────┴─────┴─────┤
│ 3 rows (3 shown) 5 columns (5 shown)    │
└─────────────────────────────────────────┘
…
(set trades (table [Sym Time Price]
  (list [AAPL AAPL AAPL]
        [12:00:01 12:00:04 12:00:06]
        [89.17 70.5 80.54])))

(set quotes (table [Sym Time Size]
  (list [AAPL AAPL AAPL AAPL AAPL AAPL AAPL AAPL AAPL AAPL]
        [12:00:00 12:00:01 12:00:02 12:00:03 12:00:04 12:00:05 12:00:06 12:00:07 12:00:08 12:00:09]
        [928 528 648 914 918 626 577 817 620 698])))

; Simple window join: match on [Sym], join by Time
(window-join trades quotes [Sym] 'Time)

┌──────┬──────────────┬───────┬───────┐
│ Sym  │     Time     │ Price │ Size  │
│ sym  │     time     │  f64  │  i64  │
├──────┼──────────────┼───────┼───────┤
│ AAPL │ 12:00:01.000 │ 89.17 │ 528   │
│ AAPL │ 12:00:04.000 │ 70.5  │ 918   │
│ AAPL │ 12:00:06.000 │ 80.54 │ 577   │
├──────┴──────────────┴───────┴───────┤
│ 3 rows (3 shown) 4 columns (4 shown)│
└─────────────────────────────────────┘
…
      Problem: Load a CSV, transform the data, and save the result.

; Create sample data
(set data (table [Name Score Grade]
  (list [Alice Bob Charlie]
        [95 87 92]
        [A B A])))

; Save to CSV
(.csv.write data "/tmp/grades.csv")

; Load it back
(.csv.read "/tmp/grades.csv")

┌─────────┬───────┬───────────────────┐
│  Name   │ Score │       Grade       │
│   sym   │  i64  │        sym        │
├─────────┼───────┼───────────────────┤
│ Alice   │ 95    │ A                 │
│ Bob     │ 87    │ B                 │
│ Charlie │ 92    │ A                 │
├─────────┴───────┴───────────────────┤
│ 3 rows (3 shown) 3 columns (3 shown)│
└─────────────────────────────────────┘
…
