Data Persistence Guide — Rayforce Documentation
…
      Writing CSV

(.csv.write table "path/to/output.csv")

      Example: Round-Trip

(set data (table [Name Score Grade]
  (list [Alice Bob Charlie]
        [95 87 92]
        [A B A])))

(.csv.write data "/tmp/grades.csv")
(.csv.read "/tmp/grades.csv")

┌─────────┬───────┬───────────────────┐
│  Name   │ Score │       Grade       │
│   sym   │  i64  │        sym        │
├─────────┼───────┼───────────────────┤
│ Alice   │ 95    │ A                 │
│ Bob     │ 87    │ B                 │
│ Charlie │ 92    │ A                 │
├─────────┴───────┴───────────────────┤
│ 3 rows (3 shown) 3 columns (3 shown)│
└─────────────────────────────────────┘
…
