Quick Start — Rayforce Documentation
…
      The Rayfall REPL provides an interactive environment with syntax highlighting, bracket matching, tab completion, and multi-line input:

./rayforce

      You will see the ‣ prompt (a green triangle bullet):

‣

      Your First Table

      Create a table with two columns using the table function. Column names are symbols (quoted identifiers), and column data are vectors:

‣ (set t (table [x y] (list [1 2 3] [A B C])))
┌─────┬───────────────────────────────┐
│  x  │               y               │
│ i64 │              sym              │
├─────┼───────────────────────────────┤
│ 1   │ A                             │
│ 2   │ B                             │
│ 3   │ C                             │
├─────┴───────────────────────────────┤
│ 3 rows (3 shown) 2 columns (2 shown)│
└─────────────────────────────────────┘

      Your First Query

      Use select to query the table. The where: clause filters rows, and you can project specific columns:

‣ (select {from:t where: (> x 1)})
┌─────┬───────────────────────────────┐
│  x  │               y               │
│ i64 │              sym              │
├─────┼───────────────────────────────┤
│ 2   │ B                             │
│ 3   │ C                             │
├─────┴───────────────────────────────┤
│ 2 rows (2 shown) 2 columns (2 shown)│
└─────────────────────────────────────┘

      Add computed columns and aggregations:

; Select with a computed column
‣ (select {from:t x:x x2: (* x x)})
┌─────┬───────────────────────────────┐
│  x  │              x2               │
│ i64 │              i64              │
├─────┼───────────────────────────────┤
│ 1   │ 1                             │
│ 2   │ 4                             │
│ 3   │ 9                             │
├─────┴───────────────────────────────┤
│ 3 rows (3 shown) 2 columns (2 shown)│
└─────────────────────────────────────┘

; Group by and aggregate
‣ (select {from:t by: y total: (sum x)})
┌─────┬───────────────────────────────┐
│  y  │             total             │
│ sym │              i64              │
├─────┼───────────────────────────────┤
│ A   │ 1                             │
│ B   │ 2                             │
│ C   │ 3                             │
├─────┴───────────────────────────────┤
│ 3 rows (3 shown) 2 columns (2 shown)│
└─────────────────────────────────────┘
…
