Data Loading & Storage Tutorial — Rayforce Documentation
…
(set trades (.csv.read "/tmp/rayforce-test/trades.csv"))
trades

      Assuming trades.csv contains:

Symbol,Price,Qty
AAPL,150.5,100
GOOG,280.0,200
MSFT,420.0,50
AAPL,155.0,300
GOOG,275.5,150

      Output:

┌────────┬───────┬────────────────────┐
│ Symbol │ Price │        Qty         │
│  sym   │  f64  │        i64         │
├────────┼───────┼────────────────────┤
│ AAPL   │ 150.5 │ 100                │
│ GOOG   │ 280.0 │ 200                │
│ MSFT   │ 420.0 │ 50                 │
│ AAPL   │ 155.0 │ 300                │
│ GOOG   │ 275.5 │ 150                │
├────────┴───────┴────────────────────┤
│ 5 rows (5 shown) 3 columns (3 shown)│
└─────────────────────────────────────┘
…
      Use count, type, and show to inspect a loaded table:

(count trades)

5

(type trades)

TABLE

      show limits the display to the first n rows — useful for large datasets:

(show trades 3)

┌────────┬───────┬────────────────────┐
│ Symbol │ Price │        Qty         │
│  sym   │  f64  │        i64         │
├────────┼───────┼────────────────────┤
│ AAPL   │ 150.5 │ 100                │
│ GOOG   │ 280.0 │ 200                │
│ MSFT   │ 420.0 │ 50                 │
│ AAPL   │ 155.0 │ 300                │
│ GOOG   │ 275.5 │ 150                │
├────────┴───────┴────────────────────┤
│ 5 rows (5 shown) 3 columns (3 shown)│
└─────────────────────────────────────┘

      3. Filtering Rows

      Use select with a where: clause to filter rows. Find all trades where the price exceeds 200:

(select {from:trades where: (> Price 200.0)})

┌────────┬───────┬────────────────────┐
│ Symbol │ Price │        Qty         │
│  sym   │  f64  │        i64         │
├────────┼───────┼────────────────────┤
│ GOOG   │ 280.0 │ 200                │
│ MSFT   │ 420.0 │ 50                 │
│ GOOG   │ 275.5 │ 150                │
├────────┴───────┴────────────────────┤
│ 3 rows (3 shown) 3 columns (3 shown)│
└─────────────────────────────────────┘

      4. Grouping and Aggregation

      Group by a column and compute aggregates with by::

(select {from:trades by: Symbol
         total_qty: (sum Qty)
         avg_price: (avg Price)})

┌────────┬───────────┬────────────────┐
│ Symbol │ total_qty │   avg_price    │
│  sym   │    i64    │      f64       │
├────────┼───────────┼────────────────┤
│ AAPL   │ 400       │ 152.75         │
│ GOOG   │ 350       │ 277.75         │
│ MSFT   │ 50        │ 420.0          │
├────────┴───────────┴────────────────┤
│ 3 rows (3 shown) 3 columns (3 shown)│
└─────────────────────────────────────┘
…
      5. Binary Serialization

      Use ser to serialize any Rayforce object to a compact binary format (a U8 byte vector), and de to deserialize it back. This is useful for caching, IPC, or storing intermediate results:

(set bytes (ser trades))
(count bytes)

197

      The entire table is encoded in 197 bytes. Deserialize with de:

(set restored (de bytes))
restored

┌────────┬───────┬────────────────────┐
│ Symbol │ Price │        Qty         │
│  sym   │  f64  │        i64         │
├────────┼───────┼────────────────────┤
│ AAPL   │ 150.5 │ 100                │
│ GOOG   │ 280.0 │ 200                │
│ MSFT   │ 420.0 │ 50                 │
│ AAPL   │ 155.0 │ 300                │
│ GOOG   │ 275.5 │ 150                │
├────────┴───────┴────────────────────┤
│ 5 rows (5 shown) 3 columns (3 shown)│
└─────────────────────────────────────┘

      The deserialized table is identical to the original — all types, column names, and values are preserved.

      6. Splayed Tables

      Splayed tables store each column as a separate file on disk. This is Rayforce's native columnar format — faster than CSV and preserving exact types. Use set-splayed to save and get-splayed to load:

(set-splayed "/tmp/rayforce-test/trades_db" trades)

┌────────┬───────┬────────────────────┐
│ Symbol │ Price │        Qty         │
│  sym   │  f64  │        i64         │
├────────┼───────┼────────────────────┤
│ AAPL   │ 150.5 │ 100                │
│ GOOG   │ 280.0 │ 200                │
│ MSFT   │ 420.0 │ 50                 │
│ AAPL   │ 155.0 │ 300                │
│ GOOG   │ 275.5 │ 150                │
├────────┴───────┴────────────────────┤
│ 5 rows (5 shown) 3 columns (3 shown)│
└─────────────────────────────────────┘

      On disk, this creates one file per column plus a symbol table:

/tmp/rayforce-test/trades_db/
  Symbol    Price    Qty    sym    sym.lk

      Load it back in a new session (or the same one) with get-splayed:

(set loaded (get-splayed "/tmp/rayforce-test/trades_db"))
loaded

┌────────┬───────┬────────────────────┐
│ Symbol │ Price │        Qty         │
│  sym   │  f64  │        i64         │
├────────┼───────┼────────────────────┤
│ AAPL   │ 150.5 │ 100                │
│ GOOG   │ 280.0 │ 200                │
│ MSFT   │ 420.0 │ 50                 │
│ AAPL   │ 155.0 │ 300                │
│ GOOG   │ 275.5 │ 150                │
├────────┴───────┴────────────────────┤
│ 5 rows (5 shown) 3 columns (3 shown)│
└─────────────────────────────────────┘
…
      7. Writing CSV

      Export any table to CSV with .csv.write. The return value 0 indicates success:

(set big (select {from:trades where: (> Price 200.0)}))
(.csv.write big "/tmp/rayforce-test/big_trades.csv")

0

      Verify by reading it back:

(.csv.read "/tmp/rayforce-test/big_trades.csv")

┌────────┬───────┬────────────────────┐
│ Symbol │ Price │        Qty         │
│  sym   │  f64  │        i64         │
├────────┼───────┼────────────────────┤
│ GOOG   │ 280.0 │ 200                │
│ MSFT   │ 420.0 │ 50                 │
│ GOOG   │ 275.5 │ 150                │
├────────┴───────┴────────────────────┤
│ 3 rows (3 shown) 3 columns (3 shown)│
└─────────────────────────────────────┘
…
; 5. Serialize to binary
(set bytes (ser big))

; 6. Deserialize and verify
(set restored (de bytes))
(count restored)

; 7. Save as splayed table for fast reload
(set-splayed "/tmp/rayforce-test/big_db" big)

; 8. Load splayed table back
(get-splayed "/tmp/rayforce-test/big_db")

┌────────┬───────┬────────────────────┐
│ Symbol │ Price │        Qty         │
│  sym   │  f64  │        i64         │
├────────┼───────┼────────────────────┤
│ GOOG   │ 280.0 │ 200                │
│ MSFT   │ 420.0 │ 50                 │
│ GOOG   │ 275.5 │ 150                │
├────────┴───────┴────────────────────┤
│ 3 rows (3 shown) 3 columns (3 shown)│
└─────────────────────────────────────┘
…
