Datalog Tutorial — Rayforce Documentation
…
; Reporting relationships (value is an entity ID)
(set db (assert-fact db 100 'boss 101))
(set db (assert-fact db 102 'boss 100))

      Each assert-fact returns a new table (the store is immutable). View the raw triples by evaluating db:

db

┌─────┬──────┬────────────────────────┐
│  e  │  a   │           v            │
│ i64 │ sym  │          i64           │
├─────┼──────┼────────────────────────┤
│ 100 │ name │ ...                    │
│ 100 │ dept │ ...                    │
│ 101 │ name │ ...                    │
│ 101 │ dept │ ...                    │
│ 102 │ name │ ...                    │
│ 102 │ dept │ ...                    │
│ 100 │ boss │ 101                    │
│ 102 │ boss │ 100                    │
├─────┴──────┴────────────────────────┤
│ 8 rows (8 shown) 3 columns (3 shown)│
└─────────────────────────────────────┘

      Note: Symbol values (like 'Alice, 'Engineering) are stored as intern IDs in the v column. Integer values (like the boss entity references) appear directly. This is an implementation detail — the query engine handles the mapping transparently.

      3. Querying Facts

      Use query with find/where clauses to pattern-match over the triple store. Variables start with ?. The eav predicate matches entity-attribute-value triples:

      Find all employees

(query db (find ?e ?name) (where (eav ?e 'name ?name)))

┌─────┬───────────────────────────────┐
│ ?e  │             ?name             │
│ i64 │              i64              │
├─────┼───────────────────────────────┤
│ 100 │ ...                           │
│ 101 │ ...                           │
│ 102 │ ...                           │
├─────┴───────────────────────────────┤
│ 3 rows (3 shown) 2 columns (2 shown)│
└─────────────────────────────────────┘

      The query finds every entity ?e that has a name attribute. The ?name column contains the intern IDs for the symbol values.

      Find employees in Engineering

      Add a second pattern to filter by department. Constants (like 'Engineering) constrain the match:

(query db
  (find ?e ?name)
  (where
    (eav ?e 'dept 'Engineering)
    (eav ?e 'name ?name)))

┌─────┬───────────────────────────────┐
│ ?e  │             ?name             │
│ i64 │              i64              │
├─────┼───────────────────────────────┤
│ 100 │ ...                           │
│ 102 │ ...                           │
├─────┴───────────────────────────────┤
│ 2 rows (2 shown) 2 columns (2 shown)│
└─────────────────────────────────────┘

      Only Alice (100) and Carol (102) are returned — Bob is in Sales.

      Find who reports to whom

      Query the boss attribute to find reporting relationships. Since boss stores integer entity IDs, the values are directly readable:

(query db
  (find ?e ?boss)
  (where (eav ?e 'boss ?boss)))

┌─────┬───────────────────────────────┐
│ ?e  │             ?boss             │
│ i64 │              i64              │
├─────┼───────────────────────────────┤
│ 100 │ 101                           │
│ 102 │ 100                           │
├─────┴───────────────────────────────┤
│ 2 rows (2 shown) 2 columns (2 shown)│
└─────────────────────────────────────┘
…
      4. Defining Rules

      Rules create derived relations from existing facts. Use rule to define a named relation with a head and one or more body clauses:

; "manages" means someone is your direct boss
(rule (manages ?mgr ?sub)
  (eav ?sub 'boss ?mgr))

      This says: ?mgr manages ?sub if ?sub has a boss attribute pointing to ?mgr. Query it like any other predicate:

(query db
  (find ?mgr ?sub)
  (where (manages ?mgr ?sub)))

┌──────┬──────────────────────────────┐
│ ?mgr │             ?sub             │
│ i64  │             i64              │
├──────┼──────────────────────────────┤
│ 100  │ 102                          │
│ 101  │ 100                          │
├──────┴──────────────────────────────┤
│ 2 rows (2 shown) 2 columns (2 shown)│
└─────────────────────────────────────┘
…
; Recursive step: indirect report
(rule (chain ?top ?sub)
  (eav ?sub 'boss ?mid)
  (chain ?top ?mid))

      Now find everyone who reports to Bob (101), directly or indirectly:

(query db
  (find ?sub)
  (where (chain 101 ?sub)))

┌─────────────────────────────────────┐
│                ?sub                 │
│                 i64                 │
├─────────────────────────────────────┤
│ 100                                 │
│ 102                                 │
├─────────────────────────────────────┤
│ 2 rows (2 shown) 1 columns (1 shown)│
└─────────────────────────────────────┘

      Alice (100) reports directly to Bob, and Carol (102) reports to Alice — so both are in Bob's reporting chain. The engine evaluates to a fixpoint using semi-naive evaluation, adding new tuples each iteration until no more can be derived.

      6. Negation

      Use not to exclude matching patterns. Find all employees who are NOT in Sales:

(query db
  (find ?e ?name)
  (where
    (eav ?e 'name ?name)
    (not (eav ?e 'dept 'Sales))))

┌─────┬───────────────────────────────┐
│ ?e  │             ?name             │
│ i64 │              i64              │
├─────┼───────────────────────────────┤
│ 100 │ ...                           │
│ 102 │ ...                           │
├─────┴───────────────────────────────┤
│ 2 rows (2 shown) 2 columns (2 shown)│
└─────────────────────────────────────┘
…
{name:... dept:... boss:101}

      The result is a dict mapping attribute names to values. You can also pull a specific subset of attributes:

(pull db 100 ['name 'dept])

{name:... dept:...}

      Symbol values appear as intern IDs in the dict. Integer values (like the boss reference) appear directly.

      You can also use scan-eav for attribute-level lookups. Given an attribute, it returns an [e v] table:

(scan-eav db 'name)

┌─────┬───────────────────────────────┐
│  e  │               v               │
│ i64 │              i64              │
├─────┼───────────────────────────────┤
│ 100 │ ...                           │
│ 101 │ ...                           │
│ 102 │ ...                           │
├─────┴───────────────────────────────┤
│ 3 rows (3 shown) 2 columns (2 shown)│
└─────────────────────────────────────┘
…
(rule (chain ?top ?sub)
  (eav ?sub 'boss ?top))

(rule (chain ?top ?sub)
  (eav ?sub 'boss ?mid)
  (chain ?top ?mid))

      Query everyone who reports to the CEO (100):

(query db
  (find ?sub)
  (where (chain 100 ?sub)))

┌─────────────────────────────────────┐
│                ?sub                 │
│                 i64                 │
├─────────────────────────────────────┤
│ 101                                 │
│ 102                                 │
│ 103                                 │
│ 104                                 │
│ 105                                 │
├─────────────────────────────────────┤
│ 5 rows (5 shown) 1 columns (1 shown)│
└─────────────────────────────────────┘

      All five employees report to Alice (the CEO), directly or through the chain.

      Define a rule for department heads (employees with title VP):

(rule (dept_head ?e ?d)
  (eav ?e 'dept ?d)
  (eav ?e 'title 'VP))

(query db
  (find ?e ?d)
  (where (dept_head ?e ?d)))

┌─────┬───────────────────────────────┐
│ ?e  │              ?d               │
│ i64 │              i64              │
├─────┼───────────────────────────────┤
│ 101 │ ...                           │
│ 104 │ ...                           │
├─────┴───────────────────────────────┤
│ 2 rows (2 shown) 2 columns (2 shown)│
└─────────────────────────────────────┘
…
