…
### Example: Round-Trip

```lisp
(set data (table [Name Score Grade]
  (list [Alice Bob Charlie]
        [95 87 92]
        [A B A])))

(.csv.write data "/tmp/grades.csv")
(.csv.read "/tmp/grades.csv")
```

```text
┌─────────┬───────┬───────────────────┐
│  Name   │ Score │       Grade       │
│   sym   │  i64  │        sym        │
├─────────┼───────┼───────────────────┤
│ Alice   │ 95    │ A                 │
│ Bob     │ 87    │ B                 │
│ Charlie │ 92    │ A                 │
├─────────┴───────┴───────────────────┤
│ 3 rows (3 shown) 3 columns (3 shown)│
└─────────────────────────────────────┘
```
…
