…
## 1. Time-Series Aggregation { #time-series }

**Problem:** Given daily sales records, compute the total amount per day.

```lisp
(set sales (table [Date Product Amount]
  (list
    (+ 2024.01.01 [0 0 1 1 2 2])
    [Widget Gadget Widget Gadget Widget Gadget]
    [100 200 150 300 120 180])))
```

```text
┌────────────┬─────────┬──────────────┐
│    Date    │ Product │    Amount    │
│    DATE    │   SYM   │     I64      │
├────────────┼─────────┼──────────────┤
│ 2024.01.01 │ Widget  │ 100          │
│ 2024.01.01 │ Gadget  │ 200          │
│ 2024.01.02 │ Widget  │ 150          │
│ 2024.01.02 │ Gadget  │ 300          │
│ 2024.01.03 │ Widget  │ 120          │
│ 2024.01.03 │ Gadget  │ 180          │
├────────────┴─────────┴──────────────┤
│ 6 rows (6 shown) 3 columns (3 shown)│
└─────────────────────────────────────┘
```

```lisp
; Group by Date, sum Amount
(select {from:sales by: Date total: (sum Amount)})
```

```text
┌────────────┬────────────────────────┐
│    Date    │         total          │
│    DATE    │          I64           │
├────────────┼────────────────────────┤
│ 2024.01.01 │ 300                    │
│ 2024.01.02 │ 450                    │
│ 2024.01.03 │ 300                    │
├────────────┴────────────────────────┤
│ 3 rows (3 shown) 2 columns (2 shown)│
└─────────────────────────────────────┘
```

Date arithmetic uses the format `YYYY.MM.DD`. Adding an integer vector to a date produces a date vector offset by that many days.

## 2. Top-N Queries { #top-n }

**Problem:** Find the top 3 products by revenue.

```lisp
(set products (table [Name Revenue]
  (list [Alpha Beta Gamma Delta Epsilon Zeta Eta]
        [500 1200 300 800 950 150 700])))
```

```text
┌─────────┬───────────────────────────┐
│  Name   │          Revenue          │
│   SYM   │            I64            │
├─────────┼───────────────────────────┤
│ Alpha   │ 500                       │
│ Beta    │ 1200                      │
│ Gamma   │ 300                       │
│ Delta   │ 800                       │
│ Epsilon │ 950                       │
│ Zeta    │ 150                       │
│ Eta     │ 700                       │
├─────────┴───────────────────────────┤
│ 7 rows (7 shown) 2 columns (2 shown)│
└─────────────────────────────────────┘
```

```lisp
; Sort descending, then filter to keep top 3
(set sorted (xdesc products 'Revenue))
(select {from:sorted where: (> Revenue 700)})
```

```text
┌─────────┬───────────────────────────┐
│  Name   │          Revenue          │
│   SYM   │            I64            │
├─────────┼───────────────────────────┤
│ Beta    │ 1200                      │
│ Epsilon │ 950                       │
│ Delta   │ 800                       │
├─────────┴───────────────────────────┤
│ 3 rows (3 shown) 2 columns (2 shown)│
└─────────────────────────────────────┘
```
…
Use the specialized running verbs (`sums`, `prds`, `avgs`, `mins`, `maxs`) and moving-window verbs (`msum`, `mavg`, `mmin`, `mmax`, `mcount`, `mvar`, `mdev`) for common analytics paths. Constant-window calls lower to DAG vector kernels, run with morsel-based execution, and poll cancellation during execution. The generic `scan` function is still available when the accumulator is a custom function. The related `fold` function returns only the final accumulated value.

## 4. Pivoting (Cross-Tabulation) { #pivot }

**Problem:** Cross-tabulate sales by region and product.

```lisp
(set data (table [Region Product Sales]
  (list [East East West West East West]
        [Widget Gadget Widget Gadget Widget Gadget]
        [100 200 150 300 120 180])))
```

```text
┌────────┬─────────┬──────────────────┐
│ Region │ Product │      Sales       │
│  SYM   │   SYM   │       I64        │
├────────┼─────────┼──────────────────┤
│ East   │ Widget  │ 100              │
│ East   │ Gadget  │ 200              │
│ West   │ Widget  │ 150              │
│ West   │ Gadget  │ 300              │
│ East   │ Widget  │ 120              │
│ West   │ Gadget  │ 180              │
├────────┴─────────┴──────────────────┤
│ 6 rows (6 shown) 3 columns (3 shown)│
└─────────────────────────────────────┘
```

```lisp
; Pivot: rows=Region, cols=Product, values=Sales, agg=sum
(pivot data 'Region 'Product 'Sales sum)
```

```text
┌────────┬────────┬───────────────────┐
│ Region │ Widget │      Gadget       │
│  SYM   │  I64   │        I64        │
├────────┼────────┼───────────────────┤
│ East   │ 220    │ 200               │
│ West   │ 150    │ 480               │
├────────┴────────┴───────────────────┤
│ 2 rows (2 shown) 3 columns (3 shown)│
└─────────────────────────────────────┘
```
…
(set quotes (table [Sym Ts Bid Ask]
  (list [AAPL AAPL AAPL GOOG GOOG GOOG]
        [09:29:50 09:30:10 09:31:05 09:30:00 09:30:20 09:31:00]
        [149 150 151 279 280 281]
        [151 152 153 281 282 283])))
```

```lisp
; ASOF join: match on Sym, find latest Ts <= trade Ts
(asof-join [Sym Ts] trades quotes)
```

```text
┌──────┬──────────────┬───────┬─────┬─────┐
│ Sym  │      Ts      │ Price │ Bid │ Ask │
│ SYM  │     TIME     │  I64  │ I64 │ I64 │
├──────┼──────────────┼───────┼─────┼─────┤
│ AAPL │ 09:30:00.000 │ 150   │ 149 │ 151 │
│ AAPL │ 09:31:00.000 │ 151   │ 150 │ 152 │
│ GOOG │ 09:30:30.000 │ 280   │ 280 │ 282 │
├──────┴──────────────┴───────┴─────┴─────┤
│ 3 rows (3 shown) 5 columns (5 shown)    │
└─────────────────────────────────────────┘
```
…
(set quotes (table [Sym Time Size]
  (list [AAPL AAPL AAPL AAPL AAPL AAPL AAPL AAPL AAPL AAPL]
        [12:00:00 12:00:01 12:00:02 12:00:03 12:00:04 12:00:05 12:00:06 12:00:07 12:00:08 12:00:09]
        [928 528 648 914 918 626 577 817 620 698])))

; Simple window join: match on [Sym], join by Time
(window-join trades quotes [Sym] 'Time)
```

```text
┌──────┬──────────────┬───────┬───────┐
│ Sym  │     Time     │ Price │ Size  │
│ SYM  │     TIME     │  F64  │  I64  │
├──────┼──────────────┼───────┼───────┤
│ AAPL │ 12:00:01.000 │ 89.17 │ 528   │
│ AAPL │ 12:00:04.000 │ 70.5  │ 918   │
│ AAPL │ 12:00:06.000 │ 80.54 │ 577   │
├──────┴──────────────┴───────┴───────┤
│ 3 rows (3 shown) 4 columns (4 shown)│
└─────────────────────────────────────┘
```
…
; Save to CSV
(.csv.write data "/tmp/grades.csv")

; Load it back
(.csv.read "/tmp/grades.csv")
```

```text
┌─────────┬───────┬───────────────────┐
│  Name   │ Score │       Grade       │
│   SYM   │  I64  │        SYM        │
├─────────┼───────┼───────────────────┤
│ Alice   │ 95    │ A                 │
│ Bob     │ 87    │ B                 │
│ Charlie │ 92    │ A                 │
├─────────┴───────┴───────────────────┤
│ 3 rows (3 shown) 3 columns (3 shown)│
└─────────────────────────────────────┘
```
…
