…
Use `(scan-eav db attribute)` to query all entities with a given attribute, or `(scan-eav db entity attribute)` to get a specific value:

```lisp
;; All salaries: returns a table of [entity, value]
(show (scan-eav db 'salary))

;; Specific entity's salary: returns the scalar value
(println (scan-eav db 3 'salary))  ;; => 90000
```

**Verified output** (from `scan-eav db 'salary`):

```text
All salaries:
┌─────┬───────────────────────────────┐
│  e  │               v               │
│ I64 │              I64              │
├─────┼───────────────────────────────┤
│ 1   │ 80000                         │
│ 2   │ 60000                         │
│ 3   │ 90000                         │
├─────┴───────────────────────────────┤
│ 3 rows (3 shown) 2 columns (2 shown)│
└─────────────────────────────────────┘
…
;; Query using the rule
(show (query db (find ?n ?d) (where (employee ?e ?n ?d))))
```

This rule says: "an employee is any entity `?e` that has both a `:name` attribute (bound to `?n`) and a `:dept` attribute (bound to `?d`)." The shared variable `?e` across the two clauses produces a join on entity ID.

**Verified output**:

```text
Employees (via rule):
┌─────┬───────────────────────────────┐
│ ?n  │              ?d               │
│ I64 │              I64              │
├─────┼───────────────────────────────┤
│ 340 │ 342                           │
│ 344 │ 345                           │
│ 346 │ 342                           │
├─────┴───────────────────────────────┤
│ 3 rows (3 shown) 2 columns (2 shown)│
└─────────────────────────────────────┘
```
…
The `find` clause specifies which variables to return. The `where` clause contains triple patterns and rule invocations that constrain the results.

### Simple pattern query

```lisp
;; Find all entities and their names
(show (query db (find ?e ?n) (where (?e :name ?n))))
```

**Verified output**:

```text
┌─────┬───────────────────────────────┐
│ ?e  │              ?n               │
│ I64 │              I64              │
├─────┼───────────────────────────────┤
│ 1   │ 340                           │
│ 2   │ 344                           │
│ 3   │ 346                           │
├─────┴───────────────────────────────┤
│ 3 rows (3 shown) 2 columns (2 shown)│
└─────────────────────────────────────┘
```
The `?n` column contains symbol intern IDs. Use `(sym-name id)` to convert them to readable names (see [sym-name](#sym-name) below).

### Join query

When multiple patterns share a variable, Rayforce compiles them into a join:

```lisp
;; Find name + department (join on entity ?e)
(show (query db (find ?n ?d) (where (?e :name ?n) (?e :dept ?d))))
```

**Verified output**:

```text
┌─────┬───────────────────────────────┐
│ ?n  │              ?d               │
│ I64 │              I64              │
├─────┼───────────────────────────────┤
│ 340 │ 342                           │
│ 344 │ 345                           │
│ 346 │ 342                           │
├─────┴───────────────────────────────┤
│ 3 rows (3 shown) 2 columns (2 shown)│
└─────────────────────────────────────┘
```

### Constant value patterns

Use a literal value instead of a variable to filter by a specific attribute value:

```lisp
;; Only entities in the Engineering department
(show (query db (find ?e ?n) (where (?e :name ?n) (?e :dept 'Engineering))))
```

**Verified output** (filters to entities 1 and 3):

```text
┌─────┬───────────────────────────────┐
│ ?e  │              ?n               │
│ I64 │              I64              │
├─────┼───────────────────────────────┤
│ 1   │ 340                           │
│ 3   │ 346                           │
├─────┴───────────────────────────────┤
│ 2 rows (2 shown) 2 columns (2 shown)│
└─────────────────────────────────────┘
```

### Wildcard patterns

Use `_` to match any value without binding it to a variable:

```lisp
;; All entities that have any dept attribute
(show (query db (find ?e) (where (?e :dept _))))
```

**Verified output**:

```text
┌─────────────────────────────────────┐
│                 ?e                  │
│                 I64                 │
├─────────────────────────────────────┤
│ 1                                   │
│ 2                                   │
│ 3                                   │
├─────────────────────────────────────┤
│ 3 rows (3 shown) 1 columns (1 shown)│
└─────────────────────────────────────┘
```
…
```lisp
;; Mark some employees as managers
(set db (assert-fact db 1 'manager 'true))
(set db (assert-fact db 3 'manager 'true))

;; Find employees who are NOT managers
(show (query db (find ?e ?n)
  (where (?e :name ?n)
         (not (?e :manager ?m)))))
```

**Verified output** (only Bob, entity 2, is not a manager):

```text
┌─────┬───────────────────────────────┐
│ ?e  │              ?n               │
│ I64 │              I64              │
├─────┼───────────────────────────────┤
│ 2   │ 344                           │
├─────┴───────────────────────────────┤
│ 1 rows (1 shown) 2 columns (2 shown)│
└─────────────────────────────────────┘
```
…
;; Base case: direct edge
(rule (reachable ?x ?y) (?x :edge ?y))

;; Recursive case: edge + reachability
(rule (reachable ?x ?z) (?x :edge ?y) (reachable ?y ?z))

;; Query: all reachable pairs
(show (query gdb (find ?x ?y) (where (reachable ?x ?y))))
```

**Verified output** (6 reachable pairs from 3 edges: direct + transitive):

```text
┌─────┬───────────────────────────────┐
│ ?x  │              ?y               │
│ I64 │              I64              │
├─────┼───────────────────────────────┤
│ 1   │ 2                             │
│ 2   │ 3                             │
│ 3   │ 4                             │
│ 1   │ 3                             │
│ 2   │ 4                             │
│ 1   │ 4                             │
├─────┴───────────────────────────────┤
│ 6 rows (6 shown) 2 columns (2 shown)│
└─────────────────────────────────────┘
```
…
;; Stratify and evaluate
(dl-stratify prog)
(dl-eval prog)

;; Query results
(show (dl-query prog 'edge))
```

**Verified output**:

```text
┌──────────┬──────────────────────────┐
│ edge__c0 │         edge__c1         │
│   I64    │           I64            │
├──────────┼──────────────────────────┤
│ 1        │ 2                        │
│ 2        │ 3                        │
│ 3        │ 4                        │
├──────────┴──────────────────────────┤
│ 3 rows (3 shown) 2 columns (2 shown)│
└─────────────────────────────────────┘
```
…
Use `(retract-fact db entity attr value)` to remove a triple from the datoms database:

```lisp
;; Remove Bob's name fact
(set db (retract-fact db 2 'name 'Bob))

;; Verify: only Alice and Charlie remain
(show (query db (find ?e ?n) (where (?e :name ?n))))
```

**Verified output** (2 rows after retraction):

```text
┌─────┬───────────────────────────────┐
│ ?e  │              ?n               │
│ I64 │              I64              │
├─────┼───────────────────────────────┤
│ 1   │ 340                           │
│ 3   │ 346                           │
├─────┴───────────────────────────────┤
│ 2 rows (2 shown) 2 columns (2 shown)│
└─────────────────────────────────────┘
```
…
; -- 12. Scan-eav: low-level attribute lookup --
(println "--- All salaries (scan-eav) ---")
(show (scan-eav db 'salary))

(println "--- Entity 3 salary ---")
(println (scan-eav db 3 'salary))
```

### Output

Running `./rayforce examples/rfl/datalog.rfl` produces:

```text
--- All names ---
┌─────┬───────────────────────────────┐
│ ?e  │              ?n               │
│ I64 │              I64              │
├─────┼───────────────────────────────┤
│ 1   │ 340                           │
│ 2   │ 344                           │
│ 3   │ 346                           │
├─────┴───────────────────────────────┤
│ 3 rows (3 shown) 2 columns (2 shown)│
└─────────────────────────────────────┘
--- Name + Department ---
┌─────┬───────────────────────────────┐
│ ?n  │              ?d               │
│ I64 │              I64              │
├─────┼───────────────────────────────┤
│ 340 │ 342                           │
│ 344 │ 345                           │
│ 346 │ 342                           │
├─────┴───────────────────────────────┤
│ 3 rows (3 shown) 2 columns (2 shown)│
└─────────────────────────────────────┘
--- Engineers only (constant pattern) ---
┌─────┬───────────────────────────────┐
│ ?e  │              ?n               │
│ I64 │              I64              │
├─────┼───────────────────────────────┤
│ 1   │ 340                           │
│ 3   │ 346                           │
├─────┴───────────────────────────────┤
│ 2 rows (2 shown) 2 columns (2 shown)│
└─────────────────────────────────────┘
--- Entities with any dept (wildcard _) ---
┌─────────────────────────────────────┐
│                 ?e                  │
│                 I64                 │
├─────────────────────────────────────┤
│ 1                                   │
│ 2                                   │
│ 3                                   │
├─────────────────────────────────────┤
│ 3 rows (3 shown) 1 columns (1 shown)│
└─────────────────────────────────────┘
--- Employees (via rule) ---
┌─────┬───────────────────────────────┐
│ ?n  │              ?d               │
│ I64 │              I64              │
├─────┼───────────────────────────────┤
│ 340 │ 342                           │
│ 344 │ 345                           │
│ 346 │ 342                           │
├─────┴───────────────────────────────┤
│ 3 rows (3 shown) 2 columns (2 shown)│
└─────────────────────────────────────┘
--- Non-managers (negation) ---
┌─────┬───────────────────────────────┐
│ ?e  │              ?n               │
│ I64 │              I64              │
├─────┼───────────────────────────────┤
│ 2   │ 344                           │
├─────┴───────────────────────────────┤
│ 1 rows (1 shown) 2 columns (2 shown)│
└─────────────────────────────────────┘
--- Reachable pairs (transitive closure) ---
┌─────┬───────────────────────────────┐
│ ?x  │              ?y               │
│ I64 │              I64              │
├─────┼───────────────────────────────┤
│ 1   │ 2                             │
│ 2   │ 3                             │
│ 3   │ 4                             │
│ 1   │ 3                             │
│ 2   │ 4                             │
│ 1   │ 4                             │
├─────┴───────────────────────────────┤
│ 6 rows (6 shown) 2 columns (2 shown)│
└─────────────────────────────────────┘
--- Pull entity 1 (all attributes) ---
{name:340 dept:342 salary:80000 manager:354}
--- Pull entity 2 (name + salary only) ---
{name:344 salary:60000}
--- sym-name: convert intern IDs ---
340
'Alice
--- Before retract ---
┌─────┬───────────────────────────────┐
│ ?e  │              ?n               │
│ I64 │              I64              │
├─────┼───────────────────────────────┤
│ 1   │ 340                           │
│ 2   │ 344                           │
│ 3   │ 346                           │
├─────┴───────────────────────────────┤
│ 3 rows (3 shown) 2 columns (2 shown)│
└─────────────────────────────────────┘
--- After retract (Bob removed) ---
┌─────┬───────────────────────────────┐
│ ?e  │              ?n               │
│ I64 │              I64              │
├─────┼───────────────────────────────┤
│ 1   │ 340                           │
│ 3   │ 346                           │
├─────┴───────────────────────────────┤
│ 2 rows (2 shown) 2 columns (2 shown)│
└─────────────────────────────────────┘
--- All salaries (scan-eav) ---
┌─────┬───────────────────────────────┐
│  e  │               v               │
│ I64 │              I64              │
├─────┼───────────────────────────────┤
│ 1   │ 80000                         │
│ 2   │ 60000                         │
│ 3   │ 90000                         │
├─────┴───────────────────────────────┤
│ 3 rows (3 shown) 2 columns (2 shown)│
└─────────────────────────────────────┘
…
