…
### EAV vs Regular Tables

Use EAV (Datalog) when your data is **schema-flexible** — entities can have different attributes, and you need rule-based reasoning. Use regular tables when your data has a **fixed schema** and you need fast columnar analytics.

## 2. Querying Relationships

Use `query` with `find` and `where` clauses. Variables start with `?` and are bound by pattern matching across triples:

```lisp
; Find all names
(query db (find ?e ?n) (where (?e :name ?n)))
```

```text
┌─────┬───────────────────────────────┐
│ ?e  │              ?n               │
│ I64 │              I64              │
├─────┼───────────────────────────────┤
│ 1   │ 158                           │
│ 2   │ 163                           │
│ 3   │ 165                           │
├─────┴───────────────────────────────┤
│ 3 rows (3 shown) 2 columns (2 shown)│
└─────────────────────────────────────┘
```

The value column shows internal symbol IDs (integers). Use `sym-name` to convert them to readable strings (see [Section 7](#sym-name)). You can join across multiple patterns to find related facts:

```lisp
; Find name and department for each person
(query db (find ?n ?d) (where (?e :name ?n) (?e :dept ?d)))
```

```text
┌─────┬───────────────────────────────┐
│ ?n  │              ?d               │
│ I64 │              I64              │
├─────┼───────────────────────────────┤
│ 158 │ 162                           │
│ 163 │ 162                           │
│ 165 │ 166                           │
├─────┴───────────────────────────────┤
│ 3 rows (3 shown) 2 columns (2 shown)│
└─────────────────────────────────────┘
```

Filter by constant values in patterns:

```lisp
; Find only Engineers
(query db (find ?n) (where (?e :name ?n) (?e :role 'Engineer)))
```

```text
┌─────────────────────────────────────┐
│                 ?n                  │
│                 I64                 │
├─────────────────────────────────────┤
│ 158                                 │
│ 165                                 │
├─────────────────────────────────────┤
│ 2 rows (2 shown) 1 columns (1 shown)│
└─────────────────────────────────────┘
```
…
Rules define derived relations. The pattern is: "if these patterns match, then this relation holds."

```lisp
; Define a "team-member" rule
(rule (team-member ?name ?dept)
  (?e :name ?name)
  (?e :dept ?dept))

; Use the rule in a query
(query db (find ?name ?dept) (where (team-member ?name ?dept)))
```

```text
┌───────┬─────────────────────────────┐
│ ?name │            ?dept            │
│  I64  │             I64             │
├───────┼─────────────────────────────┤
│ 158   │ 162                         │
│ 163   │ 162                         │
│ 165   │ 166                         │
├───────┴─────────────────────────────┤
│ 3 rows (3 shown) 2 columns (2 shown)│
└─────────────────────────────────────┘
```
…
; Base case: direct management
(rule (reports-to ?x ?y) (?x :manages ?y))
; Recursive case: transitive closure
(rule (reports-to ?x ?z) (?x :manages ?y) (reports-to ?y ?z))

(query db (find ?x ?y) (where (reports-to ?x ?y)))
```

```text
┌─────┬───────────────────────────────┐
│ ?x  │              ?y               │
│ I64 │              I64              │
├─────┼───────────────────────────────┤
│ 1   │ 2                             │
│ 1   │ 3                             │
│ 2   │ 3                             │
│ 2   │ 4                             │
│ 3   │ 4                             │
│ 1   │ 4                             │
├─────┴───────────────────────────────┤
│ 6 rows (6 shown) 2 columns (2 shown)│
└─────────────────────────────────────┘
```
…
```lisp
(set db (datoms))
(set db (assert-fact db 1 'name 'Alice))
(set db (assert-fact db 2 'name 'Bob))
(set db (assert-fact db 3 'name 'Charlie))
(set db (assert-fact db 1 'certified 'true))
(set db (assert-fact db 3 'certified 'true))

; Find people WITHOUT certification
(query db (find ?n) (where (?e :name ?n) (not (?e :certified ?c))))
```

```text
┌─────────────────────────────────────┐
│                 ?n                  │
│                 I64                 │
├─────────────────────────────────────┤
│ 161                                 │
├─────────────────────────────────────┤
│ 1 rows (1 shown) 1 columns (1 shown)│
└─────────────────────────────────────┘
```
…
Direct reports:

```lisp
(query db (find ?mgr ?emp)
  (where (?mgr :manages ?emp)))
```

```text
┌──────┬──────────────────────────────┐
│ ?mgr │             ?emp             │
│ I64  │             I64              │
├──────┼──────────────────────────────┤
│ 1    │ 2                            │
│ 1    │ 3                            │
│ 2    │ 4                            │
│ 3    │ 5                            │
├──────┴──────────────────────────────┤
│ 4 rows (4 shown) 2 columns (2 shown)│
└─────────────────────────────────────┘
```

Full chain of command (transitive closure):

```lisp
(query db (find ?top ?bottom)
  (where (chain-of-command ?top ?bottom)))
```

```text
┌──────┬──────────────────────────────┐
│ ?top │           ?bottom            │
│ I64  │             I64              │
├──────┼──────────────────────────────┤
│ 1    │ 2                            │
│ 1    │ 3                            │
│ 1    │ 4                            │
│ 1    │ 5                            │
│ 2    │ 4                            │
│ 3    │ 5                            │
├──────┴──────────────────────────────┤
│ 6 rows (6 shown) 2 columns (2 shown)│
└─────────────────────────────────────┘
```

Who does the CEO (entity 1) manage, directly or indirectly?

```lisp
(query db (find ?emp) (where (chain-of-command 1 ?emp)))
```

```text
┌─────────────────────────────────────┐
│                ?emp                 │
│                 I64                 │
├─────────────────────────────────────┤
│ 2                                   │
│ 3                                   │
│ 4                                   │
│ 5                                   │
├─────────────────────────────────────┤
│ 4 rows (4 shown) 1 columns (1 shown)│
└─────────────────────────────────────┘
```
…
